<svg width="98" height="102" viewBox="0 0 98 102" fill="none" xmlns="http://www.w3.org/2000/svg">
<path d="M97.4001 31.8C100.4 46.8 88.7001 60.8 71.0001 75.9C53.2001 91.1 29.4001 107.3 15.3001 99.5C1.10005 91.8 -3.39995 60 5.60005 37C14.5001 13.9 36.7001 -0.500006 56.7001 0.299994C76.7001 0.999994 94.4001 16.9 97.4001 31.8Z" fill="#0280DA"/>
</svg>
