<svg width="70" height="48" viewBox="0 0 70 48" fill="none" xmlns="http://www.w3.org/2000/svg">
<path fill-rule="evenodd" clip-rule="evenodd" d="M12.7257 15.4856C11.4845 15.4875 10.4804 16.3766 10.478 17.4753V17.4753V30.6854V30.6854C10.4783 30.8227 10.4942 30.9567 10.5243 31.0862C10.5578 31.23 10.6087 31.3682 10.6751 31.4989C11.0269 32.1914 11.8121 32.6736 12.7257 32.6752H36.1121V32.6751V15.4856V15.4856H12.7257ZM12.7257 14H57.4839C59.6521 14.0003 61.4088 15.5552 61.4095 17.4753V30.6854C61.4088 32.6049 59.6521 34.1599 57.4839 34.1605H12.7257C10.5572 34.1599 8.80075 32.6049 8.8 30.6854V17.4753C8.80075 15.5552 10.5572 14.0003 12.7257 14Z" fill="#0F3365"/>
<path fill-rule="evenodd" clip-rule="evenodd" d="M39.9395 28.5245H37.9761V21.4642H39.787V22.3722H39.809C40.2016 21.6671 41.031 21.3483 41.9256 21.3483C43.4967 21.3483 44.3579 22.6717 44.3579 23.8883C44.3579 25.3759 43.4525 26.6121 41.7616 26.6121C41.0744 26.6121 40.3325 26.3903 39.9614 25.7915H39.9395V28.5245ZM41.1403 25.2793C41.8817 25.2793 42.329 24.729 42.329 23.9272C42.329 23.2604 41.9036 22.6812 41.1403 22.6812C40.4199 22.6812 39.9394 23.2415 39.9394 23.9946C39.9394 24.729 40.4854 25.2793 41.1403 25.2793ZM51.8817 28.5245C52.2857 28.6021 52.689 28.6407 53.1037 28.6407C54.8021 28.6407 55.2767 27.5488 55.7918 26.3637C55.8227 26.2924 55.8539 26.2208 55.8854 26.1491L57.9695 21.4642H56.0057L54.8381 24.748H54.8164L53.5944 21.4642H51.4787L53.7796 26.6121C53.6386 27.0564 53.2675 27.3077 52.7882 27.3077C52.5147 27.3077 52.2745 27.2792 52.0132 27.2012L51.8817 28.5245ZM51.1499 26.6599C51.0628 26.264 51.0405 25.8682 51.0405 25.472V23.5983C51.0405 22.0625 49.7862 21.5123 48.3352 21.5123C47.4949 21.5123 46.7641 21.6181 46.066 21.8697L46.0983 23.0478C46.6443 22.7776 47.2768 22.6712 47.9092 22.6712C48.6186 22.6712 49.1971 22.8547 49.2079 23.5407C48.957 23.5017 48.6082 23.4724 48.2918 23.4724C47.2443 23.4724 45.3571 23.6565 45.3571 25.1921C45.3571 26.2839 46.3607 26.7764 47.4845 26.7764C48.2918 26.7764 48.8372 26.4958 49.2842 25.8682H49.3056C49.3056 26.0214 49.3171 26.1746 49.3288 26.3297C49.337 26.4387 49.3452 26.5485 49.3496 26.6599H51.1499ZM47.1895 25.0667C47.1895 24.5838 47.713 24.4003 48.3786 24.4003C48.5873 24.4003 48.7904 24.4099 48.9803 24.419L48.9803 24.419C49.0586 24.4227 49.1346 24.4263 49.2078 24.4291C49.2078 25.018 48.7391 25.6176 47.9966 25.6176C47.5386 25.6176 47.1895 25.4139 47.1895 25.0667Z" fill="#FFFFFE"/>
<path fill-rule="evenodd" clip-rule="evenodd" d="M20.9104 26.496H22.874V21.4642H20.9104V26.496ZM20.9104 20.6431H22.874V19.3681H20.9104V20.6431ZM27.6765 21.3483C27.9053 21.3483 28.1452 21.3773 28.3417 21.4058L28.2433 22.8546C28.0254 22.7969 27.807 22.7969 27.5782 22.7969C26.6619 22.7969 26.149 23.3861 26.149 24.3716V26.496H24.1854V21.4642H25.9746V22.3911H25.9961C26.3345 21.754 26.8255 21.3483 27.6765 21.3483ZM35.028 23.9853C35.028 25.6466 33.5987 26.6121 31.7228 26.6121C29.8465 26.6121 28.4172 25.6466 28.4172 23.9853C28.4172 22.3139 29.8465 21.3483 31.7228 21.3483C33.5987 21.3483 35.028 22.3139 35.028 23.9853ZM30.4464 23.9853C30.4464 24.729 30.8172 25.3951 31.7228 25.3951C32.6282 25.3951 32.9992 24.729 32.9992 23.9853C32.9992 23.2318 32.6282 22.5653 31.7228 22.5653C30.8172 22.5653 30.4464 23.2318 30.4464 23.9853ZM17.7769 21.4642H19.5555V25.9074C19.5555 27.974 18.4209 28.6407 16.13 28.6407C15.1919 28.6407 14.4173 28.4665 13.9589 28.3222L14.0574 26.9505C14.6572 27.2113 15.159 27.3656 15.9773 27.3656C17.112 27.3656 17.7227 26.8925 17.7227 25.9074V25.6364H17.7006C17.2318 26.2263 16.5773 26.496 15.792 26.496C14.2318 26.496 13.2608 25.4537 13.2608 23.9657C13.2608 22.4684 14.0574 21.3483 15.8245 21.3483C16.6643 21.3483 17.3408 21.754 17.7555 22.3718H17.7769V21.4642ZM16.4028 22.6812C15.6719 22.6812 15.29 23.251 15.29 23.9366C15.29 24.7187 15.8137 25.1634 16.4028 25.1634C17.1008 25.1634 17.6573 24.642 17.6573 23.8689C17.6573 23.3085 17.2863 22.6812 16.4028 22.6812Z" fill="#D8232A"/>
</svg>
