<svg width="70" height="48" viewBox="0 0 70 48" fill="none" xmlns="http://www.w3.org/2000/svg">
<rect width="70" height="48" rx="6" fill="#F884A1"/>
<path fill-rule="evenodd" clip-rule="evenodd" d="M40.7319 18.8712L42.6669 9.23625C42.8997 8.15535 42.2595 7.06612 41.1869 6.75017C39.9896 6.45084 38.7839 7.14927 38.4763 8.32995L36.7231 14.3325L35.341 8.42142C35.233 7.87265 34.9004 7.38208 34.4264 7.06613C33.9525 6.75017 33.3622 6.64208 32.8051 6.75848C31.7075 6.99129 30.9925 8.27175 31.2669 9.43581L32.0823 16.1315C31.3739 15.4254 30.5466 15.2079 29.5878 15.7633L29.4631 15.8464C28.5894 16.4414 28.4116 17.6573 28.9731 18.7648C28.5083 18.7909 28.054 18.9847 27.7086 19.3386L27.6254 19.43C26.8189 20.2615 26.9769 21.6667 27.983 22.6728L28.8003 23.4874C28.8922 27.2527 31.9551 29.8899 35.5663 29.8899C35.609 29.8899 35.6503 29.884 35.6893 29.8731C40.581 29.8241 42.7308 26.9107 43.0992 22.4898C43.2156 21.093 42.9579 20.1368 42.4174 19.5631C42.1181 19.2471 41.8021 19.0974 41.561 19.0642L40.7319 18.8712ZM39.8564 18.6674L41.7855 9.05333C41.9186 8.42142 41.5444 7.79782 40.9458 7.61489C40.2473 7.44028 39.5323 7.86433 39.341 8.57108L37.1044 16.2372C37.0379 16.4783 36.7884 16.6114 36.5473 16.5448C36.3558 16.492 36.2325 16.3239 36.2231 16.1361L34.4597 8.60434C34.3932 8.28007 34.2019 7.99737 33.9276 7.81445C33.6532 7.63152 33.3123 7.57332 32.988 7.63984C32.406 7.76456 31.9736 8.54614 32.1482 9.24457L32.1565 9.29446L33.1643 17.6025L33.7982 18.5485C34.0751 18.1642 34.4742 17.9248 34.9508 17.817C35.3499 17.7338 35.7574 17.7421 36.1482 17.8087C36.2456 17.8226 36.3197 17.8423 36.3608 17.8533C36.3688 17.8554 36.3755 17.8572 36.381 17.8586L39.8564 18.6674ZM33.3997 19.5694L32.4072 18.0882C32.3734 18.0524 32.3455 18.0111 32.3251 17.9657L31.8577 17.2682C31.284 16.4284 30.7269 16.1374 30.0618 16.5199L29.9703 16.5864C29.4548 16.944 29.3883 17.7921 29.9204 18.6069L31.8827 21.5253C32.2319 22.0408 32.9303 22.1739 33.4458 21.8247L33.5456 21.7665C33.6835 21.6763 33.7977 21.5524 33.8796 21.4097C33.3867 20.905 33.2648 20.281 33.3997 19.5694ZM34.7872 21.0233C34.7359 20.9449 34.6593 20.8823 34.565 20.8475C34.1901 20.4868 34.1752 20.0365 34.3522 19.4467C34.4852 19.0143 34.743 18.7898 35.1504 18.6983C35.4165 18.6401 35.7075 18.6484 35.9902 18.6983C36.0219 18.7047 36.0501 18.7098 36.0741 18.7142C36.1129 18.7213 36.1411 18.7265 36.1565 18.7316L41.3947 19.9538L41.4945 19.9871C41.5776 20.0204 41.6691 20.0869 41.7606 20.1783C42.1098 20.5525 42.3093 21.2593 42.2095 22.4233C41.8686 26.4975 39.9729 29.0251 35.4664 28.9836C35.4411 28.9836 35.4163 28.9856 35.3922 28.9896C32.6608 28.9167 30.3503 27.1333 29.8136 24.4973L30.4857 25.1672C31.2922 25.9404 32.5644 25.9238 33.3459 25.1256L33.4374 25.0341C34.0577 24.3869 34.1641 23.4334 33.7609 22.6792C33.8205 22.6471 33.8791 22.6117 33.9364 22.573L34.0362 22.5065C34.2622 22.3526 34.452 22.1543 34.5976 21.9259C34.9012 22.0841 35.2662 22.2228 35.6992 22.3402L36.9547 22.6312C36.0234 23.155 35.4414 24.1278 35.3749 25.6161C35.3583 25.8656 35.5495 26.0734 35.7989 26.0901C36.0484 26.0984 36.2562 25.9155 36.2729 25.666C36.3394 24.319 36.8632 23.5957 37.703 23.2797C38.152 23.1134 38.6426 23.0802 39.0749 23.1217L39.183 23.1384C39.7567 23.2465 39.9396 22.39 39.3659 22.257L35.9153 21.4837C35.4173 21.3477 35.0493 21.1966 34.7872 21.0233ZM28.3571 19.9705C28.7022 19.6093 29.2643 19.5658 29.6693 19.8474L31.1344 22.0325C31.5362 22.6195 32.187 22.9307 32.8449 22.9191C33.2038 23.3545 33.1846 23.9987 32.7805 24.4105L32.6974 24.502C32.265 24.9427 31.5583 24.951 31.1176 24.5186L28.6232 22.0492C27.9331 21.359 27.8416 20.5109 28.274 20.062L28.3571 19.9705ZM25.0313 38.3293C25.0313 39.7178 23.9504 40.6657 22.5369 40.6657C21.5474 40.6657 20.6993 40.2167 20.1755 39.5016L21.1483 38.5288C21.4393 38.903 21.9216 39.3104 22.5535 39.3104C23.1438 39.3104 23.5513 38.9612 23.5513 38.3958C23.5513 37.7971 23.069 37.6475 22.3124 37.4313C20.9238 37.0239 20.3584 36.3005 20.3584 35.3609C20.3584 34.1802 21.2564 33.1658 22.6699 33.1658C23.5596 33.1658 24.3827 33.5816 24.7486 34.3881L23.5762 35.1281C23.3517 34.7623 23.0441 34.5211 22.6283 34.5211C22.1378 34.5211 21.8301 34.8537 21.8301 35.2778C21.8301 35.785 22.2791 35.9429 22.9942 36.1508C24.1167 36.4834 25.0313 37.0405 25.0313 38.3293ZM25.5382 38.0133C25.5382 39.4684 26.7521 40.6657 28.2488 40.6657C29.7454 40.6657 30.9594 39.4684 30.9594 38.0133C30.9594 36.5583 29.7454 35.3609 28.2488 35.3609C26.7521 35.3609 25.5382 36.5583 25.5382 38.0133ZM28.2484 39.3353C28.9718 39.3353 29.5455 38.7616 29.5455 38.0133C29.5455 37.265 28.9718 36.6913 28.2484 36.6913C27.5167 36.6913 26.9513 37.265 26.9513 38.0133C26.9513 38.7699 27.525 39.3353 28.2484 39.3353ZM34.4598 33.2573V34.5877C33.6699 34.5544 33.0962 34.9535 33.0962 35.8349V36.3753C33.4121 36.0428 33.8611 35.8765 34.4182 35.8765V37.2234C33.6366 37.2401 33.0962 37.739 33.0962 38.4374V40.5327H31.6827V35.7517C31.6827 34.4048 32.5308 33.2573 34.2519 33.2573H34.4598ZM37.5446 40.6657C36.0479 40.6657 34.834 39.4684 34.834 38.0133C34.834 36.5583 36.0479 35.3609 37.5446 35.3609C39.0412 35.3609 40.2551 36.5583 40.2551 38.0133C40.2551 39.4684 39.0412 40.6657 37.5446 40.6657ZM38.8415 38.0133C38.8415 38.7616 38.2761 39.3353 37.5444 39.3353C36.8211 39.3353 36.2474 38.7699 36.2474 38.0133C36.2474 37.265 36.8211 36.6913 37.5444 36.6913C38.2678 36.6913 38.8415 37.265 38.8415 38.0133ZM42.392 36.076V35.5023H41.02V40.5326H42.4335V38.2378C42.4335 37.4063 42.9241 36.9407 43.7722 36.9407V35.4274C43.132 35.4025 42.6747 35.6187 42.392 36.076ZM46.0006 36.7329V37.9635C46.0006 38.8448 46.5743 39.2356 47.3642 39.2107V40.541H47.1564C45.4269 40.541 44.5871 39.3936 44.5871 38.0466V33.8893H46.0006V34.6792C46.0006 35.361 46.5577 35.8765 47.3227 35.8931V37.2318C46.7573 37.2318 46.3166 37.0655 46.0006 36.7329ZM49.0521 40.6158C49.5676 40.6158 50 40.1918 50 39.668C50 39.1525 49.5759 38.7201 49.0521 38.7201C48.5283 38.7201 48.1042 39.1441 48.1042 39.668C48.1042 40.1918 48.5283 40.6158 49.0521 40.6158Z" fill="white"/>
</svg>
